module gitlab.com/dima_chudinov/quic-sender

go 1.21.3

require (
	github.com/cpuguy83/go-md2man/v2 v2.0.3 // indirect
	github.com/francoispqt/gojay v1.2.13 // indirect
	github.com/go-task/slim-sprig v0.0.0-20230315185526-52ccab3ef572 // indirect
	github.com/google/pprof v0.0.0-20240227163752-401108e1b7e7 // indirect
	github.com/onsi/ginkgo/v2 v2.15.0 // indirect
	github.com/quic-go/qpack v0.4.0 // indirect
	github.com/quic-go/quic-go v0.41.0 // indirect
	github.com/russross/blackfriday/v2 v2.1.0 // indirect
	github.com/urfave/cli/v2 v2.27.1 // indirect
	github.com/xrash/smetrics v0.0.0-20231213231151-1d8dd44e695e // indirect
	go.uber.org/mock v0.4.0 // indirect
	golang.org/x/crypto v0.20.0 // indirect
	golang.org/x/exp v0.0.0-20240222234643-814bf88cf225 // indirect
	golang.org/x/mod v0.15.0 // indirect
	golang.org/x/net v0.21.0 // indirect
	golang.org/x/sys v0.17.0 // indirect
	golang.org/x/text v0.14.0 // indirect
	golang.org/x/tools v0.18.0 // indirect
)
